<?xml version="1.0" encoding="utf-8"?>
<!-- Generator: Adobe Illustrator 22.0.1, SVG Export Plug-In . SVG Version: 6.00 Build 0)  -->
<svg version="1.1" xmlns="http://www.w3.org/2000/svg" xmlns:xlink="http://www.w3.org/1999/xlink" x="0px" y="0px"
	 viewBox="0 0 60 60" style="enable-background:new 0 0 60 60;" xml:space="preserve">
<style type="text/css">
	.st0{display:none;}
	.st1{fill:#575756;}
	.st2{display:inline;}
	.st3{fill:none;stroke:#000000;stroke-width:0.75;stroke-miterlimit:10;}
	.st4{display:inline;fill:none;stroke:#000000;stroke-width:0.75;stroke-miterlimit:10;}
	.st5{fill:#010202;stroke:#000000;stroke-width:0.75;stroke-miterlimit:10;}
	.st6{display:inline;fill:#010202;stroke:#000000;stroke-width:0.75;stroke-miterlimit:10;}
	
		.st7{display:inline;fill:none;stroke:#000000;stroke-width:0.75;stroke-linecap:round;stroke-linejoin:round;stroke-miterlimit:10;}
	.st8{fill:none;stroke:#000000;stroke-width:0.5;stroke-miterlimit:10;}
	.st9{fill:#FFFFFF;}
</style>
<g id="guide" class="st0">
</g>
<g id="sfondo">
	<circle class="st1" cx="30" cy="30" r="30"/>
</g>
<g id="line" class="st0">
	<g class="st2">
		<rect x="23.4" y="5" class="st3" width="12" height="50"/>
		<line class="st3" x1="35.4" y1="9.6" x2="30.8" y2="9.6"/>
		<line class="st3" x1="35.4" y1="12.6" x2="32.6" y2="12.6"/>
		<line class="st3" x1="35.4" y1="15.6" x2="30.8" y2="15.6"/>
		<line class="st3" x1="35.4" y1="18.6" x2="32.6" y2="18.6"/>
		<line class="st3" x1="35.4" y1="21.3" x2="30.8" y2="21.3"/>
		<line class="st3" x1="35.4" y1="24.3" x2="32.6" y2="24.3"/>
		<line class="st3" x1="35.4" y1="27.3" x2="30.8" y2="27.3"/>
		<line class="st3" x1="35.4" y1="30.3" x2="32.6" y2="30.3"/>
		<line class="st3" x1="35.4" y1="33.1" x2="30.8" y2="33.1"/>
		<line class="st3" x1="35.4" y1="36.1" x2="32.6" y2="36.1"/>
		<line class="st3" x1="35.4" y1="39.1" x2="30.8" y2="39.1"/>
		<line class="st3" x1="35.4" y1="42.1" x2="32.6" y2="42.1"/>
		<line class="st3" x1="35.4" y1="44.8" x2="30.8" y2="44.8"/>
		<line class="st3" x1="35.4" y1="47.8" x2="32.6" y2="47.8"/>
		<line class="st3" x1="35.4" y1="50.8" x2="30.8" y2="50.8"/>
	</g>
</g>
<g id="riempimento">
	<g>
		<path class="st9" d="M23,55.4h12.8V4.6H23V55.4z M23.8,5.4H35v3.8h-4.2V10H35v2.2h-2.4v0.8H35v2.2h-4.2v0.8H35v2.2h-2.4v0.8H35v2
			h-4.2v0.8H35v2.2h-2.4v0.8H35v2.2h-4.2v0.8H35v2.2h-2.4v0.8H35v2.1h-4.2v0.8H35v2.2h-2.4v0.8H35v2.2h-4.2v0.8H35v2.2h-2.4v0.8H35
			v2h-4.2v0.8H35v2.2h-2.4v0.8H35v2.2h-4.2v0.8H35v3.4H23.8V5.4z"/>
	</g>
</g>
</svg>
