<?xml version="1.0" encoding="utf-8"?>
<!-- Generator: Adobe Illustrator 22.0.1, SVG Export Plug-In . SVG Version: 6.00 Build 0)  -->
<svg version="1.1" xmlns="http://www.w3.org/2000/svg" xmlns:xlink="http://www.w3.org/1999/xlink" x="0px" y="0px"
	 viewBox="0 0 60 60" style="enable-background:new 0 0 60 60;" xml:space="preserve">
<style type="text/css">
	.st0{display:none;}
	.st1{fill:#575756;}
	.st2{display:inline;}
	.st3{fill:none;stroke:#000000;stroke-width:0.75;stroke-miterlimit:10;}
	.st4{display:inline;fill:none;stroke:#000000;stroke-width:0.75;stroke-miterlimit:10;}
	.st5{fill:#010202;stroke:#000000;stroke-width:0.75;stroke-miterlimit:10;}
	.st6{display:inline;fill:#010202;stroke:#000000;stroke-width:0.75;stroke-miterlimit:10;}
	
		.st7{display:inline;fill:none;stroke:#000000;stroke-width:0.75;stroke-linecap:round;stroke-linejoin:round;stroke-miterlimit:10;}
	.st8{fill:none;stroke:#000000;stroke-width:0.5;stroke-miterlimit:10;}
	.st9{fill:#FFFFFF;}
</style>
<g id="guide" class="st0">
</g>
<g id="sfondo">
	<circle class="st1" cx="30" cy="30" r="30"/>
</g>
<g id="line" class="st0">
	<path class="st4" d="M38.4,35.6L37.4,7.6c0,0-0.1-1.8-1.4-2.1c-1.2-0.2-5.2-0.8-5.2-0.8l-3.1,1.9l1.5,1.9l-2,1.4l1.5,1.8L26.5,13
		l1.4,1.8l-2.1,1.4l1.4,1.9l-2.1,1.3l1.3,2.1l-2,1.4l1.4,1.7l-2.1,1.4l1.7,1.8L23,29.2l1.7,1.7l-2.2,1.5l1.2,1.9l-1.9,1.4l2,2.1
		l14-1c0,0,0.8,0.1,0.7,1.1c0,1.1-0.1,15.9-0.1,15.9s0.1,1.5-1.2,1.6c-1.3,0.1-1.7-0.2-2.3-1.1c-0.6-1-0.9-1.9-0.9-1.9
		s-0.5-1.1-1.9-1.1c-1.3-0.1-5-0.1-5-0.1s-1.1-0.2-1.9,1c-0.8,1.2-1.7,3.1-2.6,3c-0.9-0.1-1.2-0.8-1.2-1.8c0-1,0.4-12.4,0.4-12.4
		s0.2-1.7,2.3-1.6l10.4-0.5c0,0,1,0.1,1,1.4c0,1.3-0.1,5.4-0.1,5.4s-0.1,1-1.4,1c-1.3,0-8.4-0.1-8.4-0.1s-1-0.1-1-0.8c0-0.7,0-2,0-2
		s0-0.9,1.2-0.9c0.4,0,8.6-0.1,8.6-0.1"/>
</g>
<g id="riempimento">
	<g>
		<path class="st9" d="M25.1,43.1c0.1-0.1,0.4-0.2,0.7-0.2c0,0,0,0,0,0c0.5,0,8.2-0.1,8.6-0.1l0-0.8c-0.1,0-8,0.1-8.5,0.1
			c0,0,0,0,0,0c-0.5,0-1,0.1-1.3,0.4c-0.3,0.3-0.3,0.8-0.3,0.8c0,0.1-0.1,1.3,0,2.1c0.1,0.8,0.9,1.1,1.4,1.2c0,0,7.1,0.1,8.4,0.1
			c0,0,0,0,0,0c1.3,0,1.7-0.9,1.8-1.3c0,0,0.1-4.1,0.1-5.4c0-1.3-0.8-1.7-1.3-1.7l-10.4,0.5c-1.9-0.1-2.6,1.3-2.7,2
			c0,0.5-0.4,11.4-0.4,12.4c0,1.7,0.8,2.1,1.5,2.2c1,0.1,1.8-1.2,2.5-2.4c0.2-0.2,0.3-0.5,0.4-0.7c0.6-0.9,1.4-0.8,1.5-0.8
			c0,0,3.7,0.1,5,0.1c1.2,0.1,1.6,0.9,1.6,0.9c0,0,0.3,0.9,0.9,1.9c0.6,1,1.1,1.3,2.2,1.3c0.1,0,0.3,0,0.4,0c1.3-0.1,1.6-1.3,1.6-2
			c0,0,0.1-14.9,0.1-15.9c0-1.1-0.7-1.5-1.1-1.5l-13.8,1l-1.6-1.6l1.9-1.4L23,32.5l2.2-1.5l-1.7-1.7l2.3-1.5l-1.7-1.8l2.1-1.4
			l-1.5-1.7l2-1.3l-1.3-2.1l2.1-1.3l-1.4-1.9l2.1-1.4L27,13.1l2.1-1.4l-1.5-1.8l2-1.4l-1.5-1.9l2.7-1.6c0.7,0.1,4,0.6,5.1,0.8
			C36.9,6.1,37,7.6,37,7.6L38,35.7l0.7,0L37.7,7.5c0-0.1-0.2-2.1-1.7-2.4c-1.2-0.2-5.2-0.8-5.2-0.8l-0.1,0l-3.6,2.2l1.5,1.9l-2,1.4
			l1.5,1.8l-2.1,1.4l1.5,1.8l-2.1,1.4l1.3,1.9l-2.1,1.3l1.3,2.1l-2.1,1.4l1.4,1.7l-2.1,1.4l1.7,1.8l-2.4,1.5l1.7,1.7L22,32.2
			l1.3,1.9l-2,1.4l2.5,2.5l14.1-1c0.1,0,0.4,0.1,0.4,0.7c0,1.1-0.1,15.9-0.1,16c0,0.1,0,1.1-0.9,1.2c-1.2,0.1-1.4-0.1-1.9-1
			c-0.6-0.9-0.9-1.8-0.9-1.8c0-0.1-0.6-1.3-2.2-1.4c-1.3-0.1-4.9-0.1-5-0.1c-0.1,0-1.3-0.3-2.2,1.1c-0.1,0.2-0.3,0.5-0.5,0.7
			c-0.5,0.9-1.3,2.2-1.8,2.1c-0.2,0-0.9-0.1-0.9-1.4c0-1,0.4-12.2,0.4-12.3c0-0.1,0.2-1.4,1.9-1.3L34.5,39c0,0,0.6,0.1,0.6,1
			c0,1.3-0.1,5.3-0.1,5.3c0,0.1-0.1,0.6-1,0.6c0,0,0,0,0,0c-1.3,0-8.4-0.1-8.4-0.1c0,0-0.7-0.1-0.7-0.5c0-0.7,0-2,0-2
			C25,43.4,25,43.2,25.1,43.1z"/>
	</g>
</g>
</svg>
