<?xml version="1.0" encoding="utf-8"?>
<!-- Generator: Adobe Illustrator 22.0.1, SVG Export Plug-In . SVG Version: 6.00 Build 0)  -->
<svg version="1.1" id="Livello_1" xmlns="http://www.w3.org/2000/svg" xmlns:xlink="http://www.w3.org/1999/xlink" x="0px" y="0px"
	 viewBox="0 0 60 60" style="enable-background:new 0 0 60 60;" xml:space="preserve">
<style type="text/css">
	.st0{display:none;}
	.st1{display:inline;fill:none;stroke:#000000;stroke-width:0.75;stroke-miterlimit:10;}
	.st2{fill:#FFFFFF;}
</style>
<g id="guide" class="st0">
</g>
<g id="sfondo">
	<circle cx="30" cy="30" r="30"/>
</g>
<g id="line" class="st0">
	<polyline class="st1" points="12.8,13.7 12.8,46.7 44.4,46.7 	"/>
	<polyline class="st1" points="9.6,14.5 12.9,11.2 16,14.2 	"/>
	<rect x="20.9" y="16.7" class="st1" width="20.4" height="20.4"/>
	<polyline class="st1" points="43.8,43.5 47.1,46.8 44,49.9 	"/>
</g>
<g id="riempimento">
	<g>
		<polygon class="st2" points="44.4,46.3 13.2,46.3 13.2,13.7 12.4,13.7 12.4,47.1 44.4,47.1 		"/>
		<polygon class="st2" points="15.7,14.5 16.2,14 12.9,10.6 9.3,14.2 9.9,14.8 12.9,11.7 		"/>
		<path class="st2" d="M41.7,16.3H20.5v21.1h21.1V16.3H41.7z M40.9,36.7H21.3V17.1h19.6V36.7z"/>
		<polygon class="st2" points="43.5,43.8 46.5,46.8 43.8,49.6 44.3,50.1 47.6,46.8 44,43.2 		"/>
	</g>
</g>
</svg>
