<?xml version="1.0" encoding="utf-8"?>
<!-- Generator: Adobe Illustrator 22.0.1, SVG Export Plug-In . SVG Version: 6.00 Build 0)  -->
<svg version="1.1" id="Livello_1" xmlns="http://www.w3.org/2000/svg" xmlns:xlink="http://www.w3.org/1999/xlink" x="0px" y="0px"
	 viewBox="0 0 60 60" style="enable-background:new 0 0 60 60;" xml:space="preserve">
<style type="text/css">
	.st0{display:none;}
	.st1{display:inline;fill:none;stroke:#000000;stroke-width:0.75;stroke-miterlimit:10;}
	
		.st2{display:inline;fill:none;stroke:#000000;stroke-width:0.75;stroke-linecap:round;stroke-linejoin:round;stroke-miterlimit:10;}
	.st3{fill:#FFFFFF;}
</style>
<g id="guide" class="st0">
</g>
<g id="sfondo">
	<circle cx="30" cy="30" r="30"/>
</g>
<g id="line" class="st0">
	<polyline class="st1" points="14.1,13.7 14.1,46.7 45.7,46.7 	"/>
	<polyline class="st1" points="10.9,14.5 14.2,11.2 17.3,14.2 	"/>
	<line class="st2" x1="26.3" y1="21.1" x2="40.1" y2="21.1"/>
	<polyline class="st1" points="45.1,43.5 48.4,46.8 45.4,49.9 	"/>
	<polyline class="st2" points="40.1,41.5 46.7,34.9 46.7,14.5 26.3,14.5 19.7,21.1 26.3,21.1 19.7,21.1 19.7,41.5 40.1,41.5 
		40.1,21.1 	"/>
	<line class="st2" x1="40.1" y1="21.1" x2="46.7" y2="14.5"/>
</g>
<g id="riempimento">
	<g>
		<polygon class="st3" points="45.7,46.3 14.5,46.3 14.5,13.7 13.7,13.7 13.7,47.1 45.7,47.1 		"/>
		<polygon class="st3" points="17,14.5 17.6,14 14.2,10.6 10.7,14.2 11.2,14.8 14.2,11.7 		"/>
		<polygon class="st3" points="44.8,43.8 47.9,46.8 45.1,49.6 45.6,50.1 48.9,46.8 45.4,43.2 		"/>
		<path class="st3" d="M40.1,41.9L40.1,41.9L40.1,41.9L40.1,41.9L40.1,41.9L40.1,41.9L40.1,41.9C40.2,41.9,40.2,41.9,40.1,41.9
			L40.1,41.9c0.1,0,0.2,0,0.2-0.1l6.6-6.6C47,35.1,47,35,47,34.9V14.5c0-0.1,0-0.2-0.1-0.3l0,0l0,0c-0.1-0.1-0.2-0.1-0.3-0.1l0,0
			H26.3c-0.1,0-0.2,0-0.3,0.1l-6.6,6.6l0,0l0,0l0,0c0,0.1-0.1,0.1-0.1,0.2l0,0v20.4c0,0.2,0.2,0.4,0.4,0.4L40.1,41.9L40.1,41.9z
			 M40.5,40.6V21.3l5.9-5.9v19.3L40.5,40.6z M26.5,14.9h19.3l-5.9,5.9H26.3h-5.7L26.5,14.9z M20.1,21.5h6.3h13.4v19.6H20.1V21.5z"/>
	</g>
</g>
</svg>
