<?xml version="1.0" encoding="utf-8"?>
<!-- Generator: Adobe Illustrator 22.0.1, SVG Export Plug-In . SVG Version: 6.00 Build 0)  -->
<svg version="1.1" id="Livello_1" xmlns="http://www.w3.org/2000/svg" xmlns:xlink="http://www.w3.org/1999/xlink" x="0px" y="0px"
	 viewBox="0 0 60 60" style="enable-background:new 0 0 60 60;" xml:space="preserve">
<style type="text/css">
	.st0{display:none;}
	.st1{display:inline;}
	.st2{fill:#FFFFFF;}
</style>
<g id="guide" class="st0">
</g>
<g id="sfondo">
	<circle cx="30" cy="30" r="30"/>
</g>
<g id="line" class="st0">
	<g class="st1">
		<g>
			<path d="M8.3,30l-1.4,0.4v0.1l1.4,0.4l7.7,3.5v0.7l-9.7-4.4v-0.6l9.7-4.4v0.7L8.3,30z"/>
			<path d="M16.1,35.3l-0.2-0.1l-9.8-4.4v-0.7l10-4.5v0.9H16l-7.7,3.6l-1.1,0.3l1.1,0.3l7.7,3.6v1H16.1z M6.4,30.7l9.5,4.3v-0.4
				L8.2,31l-1.5-0.4v-0.3l1.5-0.5l7.6-3.5V26l-9.5,4.3v0.4C6.3,30.7,6.4,30.7,6.4,30.7z"/>
		</g>
		<g>
			<path d="M18.9,30.4c0-2,0.4-3.6,1.3-4.7c0.8-1.2,2-1.8,3.5-1.8c1,0,1.8,0.2,2.5,0.7c0.7,0.4,1.3,1,1.7,1.8l0.1-2.2h0.5V28l0,0
				l0,0v5.1l0,0l0,0v3.5c0,1.6-0.4,2.8-1.3,3.7c-0.8,0.9-2,1.3-3.5,1.3c-0.6,0-1.2-0.1-1.9-0.2c-0.7-0.1-1.2-0.3-1.7-0.5l0.2-0.6
				c0.6,0.2,1.1,0.4,1.6,0.6c0.5,0.1,1.1,0.2,1.8,0.2c1.4,0,2.4-0.4,3.1-1.1c0.7-0.8,1-1.8,1-3.3v-2c-0.4,0.7-1,1.2-1.7,1.6
				c-0.7,0.4-1.6,0.6-2.5,0.6c-1.5,0-2.6-0.6-3.5-1.7c-0.8-1.1-1.2-2.7-1.2-4.6V30.4z M19.6,30.7c0,1.7,0.3,3.1,1,4.1s1.7,1.5,3,1.5
				c1.1,0,2-0.2,2.7-0.7s1.2-1.1,1.6-1.9v-6c-0.3-0.9-0.8-1.6-1.5-2.2s-1.6-0.9-2.8-0.9c-1.3,0-2.3,0.5-3,1.6s-1,2.5-1,4.2
				C19.6,30.4,19.6,30.7,19.6,30.7z"/>
			<path d="M23.8,41.9c-0.6,0-1.3-0.1-1.9-0.2c-0.7-0.1-1.3-0.3-1.8-0.5H20l0.3-0.9l0.1,0.1c0.6,0.2,1.1,0.4,1.6,0.5
				s1.1,0.2,1.8,0.2c1.3,0,2.3-0.4,3-1.1c0.7-0.7,1-1.8,1-3.2v-1.6c-0.4,0.5-0.9,1-1.5,1.3c-0.7,0.4-1.6,0.6-2.6,0.6
				c-1.5,0-2.7-0.6-3.6-1.7c-0.8-1.1-1.3-2.7-1.3-4.7v-0.2c0-2,0.4-3.6,1.3-4.8c0.9-1.2,2.1-1.8,3.6-1.8c1,0,1.9,0.2,2.6,0.7
				c0.6,0.4,1.1,0.9,1.5,1.5l0.1-1.9h0.8v12.7c0,1.6-0.4,2.9-1.3,3.8C26.5,41.4,25.3,41.9,23.8,41.9z M20.3,41
				c0.5,0.2,1,0.4,1.6,0.5s1.3,0.2,1.9,0.2c1.4,0,2.6-0.4,3.4-1.3c0.8-0.8,1.2-2.1,1.2-3.6v-3.5v-0.1v-8.9h-0.3L28,26.9l-0.2-0.4
				c-0.4-0.7-1-1.3-1.7-1.8c-0.7-0.4-1.5-0.6-2.5-0.6c-1.4,0-2.6,0.6-3.4,1.7S19,28.5,19,30.5v0.2c0,1.9,0.4,3.4,1.2,4.5
				c0.8,1.1,1.9,1.6,3.4,1.6c0.9,0,1.8-0.2,2.5-0.6c0.7-0.4,1.3-0.9,1.7-1.5l0.2-0.4v2.4c0,1.4-0.4,2.6-1.1,3.3
				c-0.7,0.8-1.8,1.2-3.2,1.2c-0.7,0-1.3-0.1-1.8-0.2c-0.5-0.1-1-0.3-1.5-0.5L20.3,41z M23.6,36.4c-1.4,0-2.4-0.5-3.1-1.6
				c-0.7-1-1.1-2.4-1.1-4.2v-0.2c0-1.8,0.4-3.2,1.1-4.3c0.7-1.1,1.8-1.7,3.1-1.7c1.2,0,2.2,0.3,2.9,0.9c0.7,0.6,1.2,1.4,1.5,2.3l0,0
				v6.1c-0.3,0.8-0.9,1.5-1.6,2C25.6,36.2,24.7,36.4,23.6,36.4z M23.6,24.7c-1.3,0-2.3,0.5-2.9,1.6c-0.7,1.1-1,2.5-1,4.2v0.2
				c0,1.7,0.3,3.1,1,4.1s1.6,1.5,2.9,1.5c1,0,1.9-0.2,2.6-0.7s1.2-1.1,1.5-1.9v-6c-0.3-0.8-0.8-1.6-1.4-2.1
				C25.7,25,24.8,24.7,23.6,24.7z"/>
		</g>
		<g>
			<path d="M33.3,20.2h-0.6v-1.6h0.6V20.2z M33.3,36.7h-0.6V24.2h0.6V36.7z"/>
			<path d="M33.4,36.8h-0.9V24h0.9V36.8z M32.8,36.6h0.4V24.3h-0.4V36.6z M33.4,20.4h-0.9v-1.8h0.9V20.4z M32.8,20.1h0.4v-1.3h-0.4
				V20.1z"/>
		</g>
		<g>
			<path d="M38.7,20.8v3.4h3.1v0.6h-3.1v8.7c0,1,0.2,1.8,0.5,2.2s0.8,0.7,1.4,0.7c0.2,0,0.4,0,0.6,0c0.2,0,0.4,0,0.7-0.1l0.1,0.6
				C41.8,37,41.6,37,41.4,37s-0.4,0-0.7,0c-0.8,0-1.5-0.3-1.9-0.8s-0.7-1.4-0.7-2.7v-8.7h-2.3v-0.6H38v-3.4H38.7z"/>
			<path d="M40.6,37.1c-0.9,0-1.6-0.3-2-0.9c-0.5-0.6-0.7-1.5-0.7-2.7V25h-2.3v-1h2.3v-3.4h0.9V24h3.1v0.9h-3.1v8.5
				c0,1,0.2,1.7,0.5,2.1c0.3,0.4,0.7,0.6,1.3,0.6c0.2,0,0.4,0,0.5,0c0.2,0,0.4,0,0.7-0.1h0.1l0.2,0.8H42C41.8,37,41.6,37,41.3,37
				C41.1,37.1,40.9,37.1,40.6,37.1z M35.9,24.7h2.3v8.8c0,1.2,0.2,2.1,0.6,2.6c0.4,0.5,1,0.8,1.8,0.8c0.3,0,0.5,0,0.7,0
				s0.3,0,0.5-0.1l-0.1-0.3c-0.2,0-0.4,0.1-0.6,0.1c-0.2,0-0.4,0-0.6,0c-0.6,0-1.1-0.2-1.5-0.7s-0.5-1.2-0.5-2.3v-8.8h3.1v-0.4h-3.1
				V21h-0.4v3.4h-2.3L35.9,24.7L35.9,24.7z"/>
		</g>
		<g>
			<path d="M44.1,26.4v-0.7l9.7,4.4v0.6l-9.7,4.4v-0.7l7.6-3.6l1.4-0.4v-0.1L51.7,30L44.1,26.4z"/>
			<path d="M43.9,35.3v-1H44l7.6-3.6l1.1-0.3l-1.1-0.3l-7.7-3.6v-0.9l0.2,0.1l9.8,4.4v0.7L43.9,35.3z M44.2,34.5v0.4l9.4-4.3v-0.4
				L44.2,26v0.4l7.6,3.5l1.4,0.5v0.3L51.7,31L44.2,34.5z"/>
		</g>
	</g>
</g>
<g>
	<path class="st2" d="M15.9,18.9c-1.5,0-2.7,1.2-2.7,2.8c0,1.5,1.2,2.8,2.7,2.8s2.7-1.2,2.7-2.8C18.6,20.1,17.4,18.9,15.9,18.9z
		 M15.9,23.8c-1.2,0-2.1-1-2.1-2.2c0-1.2,0.9-2.2,2.1-2.2c1.2,0,2.1,1,2.1,2.2C18,22.8,17.1,23.8,15.9,23.8z"/>
	<path class="st2" d="M51.3,15.5h-0.7c-0.8,0-1.4,0.7-1.4,1.5v2.9h-0.7V17c0-0.8-0.7-1.5-1.5-1.5H11.6c-0.8,0-1.5,0.6-1.5,1.5v13.4
		c0,0.8,0.7,1.5,1.5,1.5h4.2v2.3h-0.4v-0.4h-0.4v1.1h0.4v-0.4h0.4v0.6l0.4,3l0.4-3v-1.3h0.4v0.4h0.4v-1.1h-0.4v0.4h-0.4v-1.6h4.2
		c0.8,0,1.5-0.6,1.5-1.5v-2.2c0,0,0,0,0.1,0h14c0,0,0,0,0.1,0v10.4h-1.5H9.5v5.8h38.9v-5.8h0V25.8h0.7v2.9c0,0.8,0.6,1.5,1.4,1.5
		h0.7c0.8,0,1.4-0.7,1.4-1.5V17C52.7,16.2,52.1,15.5,51.3,15.5z M36.3,27.4C36.3,27.4,36.3,27.4,36.3,27.4l-14,0
		c-0.4,0-0.8,0.3-0.8,0.7c0,0,0,0,0,0v2.2c0,0.4-0.4,0.8-0.8,0.7c0,0,0,0,0,0h-9.1c-0.4,0-0.8-0.3-0.8-0.7c0,0,0,0,0,0V17
		c0-0.4,0.4-0.8,0.8-0.7c0,0,0,0,0,0H47c0.4,0,0.8,0.3,0.8,0.7c0,0,0,0,0,0v2.9v5.9v11.8v1H37.1v-1v-9.4
		C37,27.8,36.7,27.4,36.3,27.4z M47.8,43.7H10.2v-4.4h24.7h2.2h10.7h0V43.7z M49.1,25.1h-0.7v-4.4h0.7V25.1z M52,28.7
		c0,0.4-0.3,0.7-0.7,0.7h-0.7c-0.4,0-0.7-0.3-0.7-0.7V17c0-0.4,0.3-0.7,0.7-0.7h0.7c0.4,0,0.7,0.3,0.7,0.7V28.7z"/>
	<path class="st2" d="M39.9,31.1h4.8c0.7,0,1.3-0.6,1.3-1.3V19.1c0-0.7-0.6-1.3-1.3-1.3h-4.8c-0.7,0-1.3,0.6-1.3,1.3v10.6
		C38.5,30.5,39.1,31.1,39.9,31.1z M39.3,19.1c0-0.3,0.3-0.6,0.6-0.6h4.8c0.3,0,0.6,0.3,0.6,0.6v10.6c0,0.3-0.3,0.6-0.6,0.6h-4.8
		c-0.3,0-0.6-0.3-0.6-0.6V19.1z"/>
</g>
</svg>
