<?xml version="1.0" encoding="utf-8"?>
<!-- Generator: Adobe Illustrator 22.0.1, SVG Export Plug-In . SVG Version: 6.00 Build 0)  -->
<svg version="1.1" id="Livello_1" xmlns="http://www.w3.org/2000/svg" xmlns:xlink="http://www.w3.org/1999/xlink" x="0px" y="0px"
	 viewBox="0 0 60 60" style="enable-background:new 0 0 60 60;" xml:space="preserve">
<style type="text/css">
	.st0{display:none;}
	.st1{display:inline;}
	.st2{fill:none;stroke:#000000;stroke-width:0.75;stroke-miterlimit:10;}
	.st3{fill:#FFFFFF;}
</style>
<g id="guide" class="st0">
</g>
<g id="sfondo">
	<circle cx="30" cy="30" r="30"/>
</g>
<g id="line" class="st0">
	<g class="st1">
		<polygon class="st2" points="38.1,28.6 42.1,21.9 42.1,19.2 52.3,19.2 52.3,15.2 42.1,15.2 42.1,12.5 30.1,12.5 30.1,15.2 
			6.5,15.2 6.5,19.2 30.1,19.2 30.1,21.9 34.1,28.6 34.1,34.6 36.6,31 36.7,34.2 34.1,37.8 34,41.3 36.6,37.6 36.6,40.6 34.1,44.5 
			38.1,44.5 		"/>
		<polygon class="st2" points="12.6,41 31.5,41 31.5,46.7 46.1,46.7 46.1,49.6 12.6,49.6 		"/>
	</g>
</g>
<g id="riempimento">
	<g>
		<path class="st3" d="M29.7,22l4,6.7v7.1l2.6-3.6v1.9l-2.6,3.6l-0.1,4.8l2.6-3.7v1.7l-2.9,4.4h5.1V28.7l4-6.7v-2.4h10.2v-4.8H42.5
			v-2.7H29.7v2.7H6.1v4.8h23.6V22z M6.8,18.8v-3.3h23.6v-2.7h11.3v2.7H52v3.3H41.7v2.9l-4,6.7V44h-3l2.2-3.4v-4.2L34.3,40v-2.1
			l2.6-3.6l0.1-4.5l-2.5,3.6v-4.9l-4-6.7v-2.9H6.8V18.8z"/>
		<path class="st3" d="M12.3,40.6V50h34.2v-3.7H31.9v-5.7H12.3z M45.8,47v2.2H13v-7.9h18.1V47H45.8z"/>
	</g>
</g>
</svg>
